Zadanie 32:
        Napisać program, który sumuje cyfry w tekście podanym przez użytkownika.
            Przykład:
                "Ala ma 1 psa i 2 koty. Jola ma 10 rybek i 2 papugi."
            Wynik:
                6
