Zadanie 28*:
    Napisz program, który pobiera od użytkownika dodatnią liczbę naturalną n i
    tworzy tablicę a zmiennych typu logicznego (boolean) o rozmiarze n×n. Następnie
    program powinien wypełnić utworzoną tablicę, tak by a[i][j] = true jeżeli liczby
    (i+1) oraz (j+1) są względnie pierwsze, tzn. nie mają wspólnych dzielników poza
    1. Tak utworzoną tablicę należy wypisać na ekranie, przy czym dla wartości true
    należy wyświetlić znak ”+”, natomiast dla wartości false znak ”.”. Przykład:
        Podaj liczbę (> 0): 10
                  1 2 3 4 5 6 7 8 9 10
                1 + + + + + + + + + +
                2 + . + . + . + . + .
                3 + + . + + . + + . +
                4 + . + . + . + . + .
                5 + + + + . + + + + .
                6 + . . . + . + . . .
                7 + + + + + + . + + +
                8 + . + . + . + . + .
                9 + + . + + . + + . +
                10 + . + . . . + . + .


    * gotowe rozwiazanie w "robocze28"